<svg width="16" height="16" viewBox="0 0 16 16" fill="none" xmlns="http://www.w3.org/2000/svg">
<g clip-path="url(#clip0_2173_2683)">
<path d="M12.6667 3.3335H3.33333C2.59695 3.3335 2 3.93045 2 4.66683V11.3335C2 12.0699 2.59695 12.6668 3.33333 12.6668H12.6667C13.403 12.6668 14 12.0699 14 11.3335V4.66683C14 3.93045 13.403 3.3335 12.6667 3.3335Z" stroke="white" stroke-linecap="round" stroke-linejoin="round"/>
<path d="M2 4.6665L8 8.6665L14 4.6665" stroke="white" stroke-linecap="round" stroke-linejoin="round"/>
</g>
<defs>
<clipPath id="clip0_2173_2683">
<rect width="16" height="16" fill="white"/>
</clipPath>
</defs>
</svg>
