<svg width="12" height="12" viewBox="0 0 12 12" fill="none" xmlns="http://www.w3.org/2000/svg">
<path fill-rule="evenodd" clip-rule="evenodd" d="M3.55583 0.166687H8.44475C10.2467 0.166687 11.25 1.20502 11.25 2.98419V9.01002C11.25 10.8184 10.2467 11.8334 8.44475 11.8334H3.55583C1.7825 11.8334 0.75 10.8184 0.75 9.01002V2.98419C0.75 1.20502 1.7825 0.166687 3.55583 0.166687ZM3.71333 2.88502V2.87919H5.45692C5.70833 2.87919 5.9125 3.08335 5.9125 3.3336C5.9125 3.59085 5.70833 3.79502 5.45692 3.79502H3.71333C3.46192 3.79502 3.25833 3.59085 3.25833 3.34002C3.25833 3.08919 3.46192 2.88502 3.71333 2.88502ZM3.71333 6.43169H8.28667C8.5375 6.43169 8.74167 6.22752 8.74167 5.97669C8.74167 5.72585 8.5375 5.5211 8.28667 5.5211H3.71333C3.46192 5.5211 3.25833 5.72585 3.25833 5.97669C3.25833 6.22752 3.46192 6.43169 3.71333 6.43169ZM3.71333 9.09752H8.28667C8.51942 9.07419 8.695 8.87527 8.695 8.64252C8.695 8.40335 8.51942 8.20502 8.28667 8.18169H3.71333C3.53833 8.16419 3.36917 8.24585 3.27583 8.39752C3.1825 8.54335 3.1825 8.73585 3.27583 8.88752C3.36917 9.03335 3.53833 9.12085 3.71333 9.09752Z" fill="#06152B" fill-opacity="0.4"/>
</svg>
