<svg width="14" height="14" viewBox="0 0 14 14" fill="none" xmlns="http://www.w3.org/2000/svg">
<path fill-rule="evenodd" clip-rule="evenodd" d="M7 0.583313C3.45625 0.583313 0.583333 3.45623 0.583333 6.99998C0.583333 10.5437 3.45625 13.4166 7 13.4166C10.5437 13.4166 13.4167 10.5437 13.4167 6.99998C13.4167 3.45623 10.5437 0.583313 7 0.583313ZM6.35367 5.21206C6.48783 4.94781 6.587 4.8224 6.66925 4.75706C6.73108 4.70806 6.81508 4.66665 7 4.66665C7.36458 4.66665 7.58333 4.94081 7.58333 5.23715C7.58333 5.39931 7.55183 5.47981 7.4655 5.58248C7.34475 5.72598 7.12133 5.9004 6.67917 6.19265L6.41667 6.36531V7.58331C6.41667 7.73802 6.47812 7.8864 6.58752 7.99579C6.69692 8.10519 6.84529 8.16665 7 8.16665C7.15471 8.16665 7.30308 8.10519 7.41248 7.99579C7.52187 7.8864 7.58333 7.73802 7.58333 7.58331V6.99006C7.8995 6.7719 8.16492 6.56306 8.35742 6.3344C8.63567 6.00423 8.75 5.6519 8.75 5.23715C8.75 4.37965 8.08908 3.49998 7 3.49998C6.601 3.49998 6.24808 3.60265 5.94533 3.8424C5.663 4.06581 5.4705 4.37323 5.313 4.68531C5.2764 4.75384 5.25386 4.82898 5.24669 4.90633C5.23953 4.98368 5.24788 5.06169 5.27127 5.13577C5.29466 5.20985 5.33261 5.27851 5.3829 5.33772C5.43318 5.39694 5.49479 5.44551 5.5641 5.48059C5.63341 5.51568 5.70903 5.53656 5.78652 5.54202C5.86402 5.54749 5.94182 5.53742 6.01536 5.5124C6.08891 5.48739 6.15672 5.44794 6.21482 5.39636C6.27291 5.34479 6.32012 5.28213 6.35367 5.21206ZM7.58333 9.62498C7.58333 9.47027 7.52187 9.3219 7.41248 9.2125C7.30308 9.1031 7.15471 9.04165 7 9.04165C6.84529 9.04165 6.69692 9.1031 6.58752 9.2125C6.47812 9.3219 6.41667 9.47027 6.41667 9.62498V9.91665C6.41667 10.0714 6.47812 10.2197 6.58752 10.3291C6.69692 10.4385 6.84529 10.5 7 10.5C7.15471 10.5 7.30308 10.4385 7.41248 10.3291C7.52187 10.2197 7.58333 10.0714 7.58333 9.91665V9.62498Z" fill="#009CFF"/>
</svg>
